{
  "context": "TESTING",
  "created": "2019-02-12T02:01:52.663008Z",
  "digest": "504b55713df065b6e6b85bf9884341a10f936d744fd235f971bb60d96759e81a",
  "id": "11ee9290-992d-4e48-97ed-1a6e4c15f92f",
  "inputs": [
    {
      "name": "inputs"
    }
  ],
  "outputs": [
    {
      "data": "steps.8.produce",
      "name": "output predictions"
    }
  ],
  "schema": "https://metadata.datadrivendiscovery.org/schemas/v0/pipeline.json",
  "steps": [
    {
      "arguments": {
        "inputs": {
          "data": "inputs.0",
          "type": "CONTAINER"
        }
      },
      "outputs": [
        {
          "id": "produce"
        }
      ],
      "primitive": {
        "digest": "c841328935157ea80838562babf8a574388a0c31b5f37d144d21ade91ed7bcb3",
        "id": "4b42ce1e-9b98-4a25-b68e-fad13311eb65",
        "name": "Extract a DataFrame from a Dataset",
        "python_path": "d3m.primitives.data_transformation.dataset_to_dataframe.Common",
        "version": "0.3.0"
      },
      "type": "PRIMITIVE"
    },
    {
      "arguments": {
        "inputs": {
          "data": "steps.0.produce",
          "type": "CONTAINER"
        }
      },
      "hyperparams": {
        "parse_semantic_types": {
          "data": [
            "http://schema.org/Boolean",
            "http://schema.org/Integer",
            "http://schema.org/Float",
            "https://metadata.datadrivendiscovery.org/types/FloatVector",
            "http://schema.org/DateTime"
          ],
          "type": "VALUE"
        }
      },
      "outputs": [
        {
          "id": "produce"
        }
      ],
      "primitive": {
        "digest": "d0a9d95982c505f77f21b31c529be446c7d326310c034f898d189736e6423efe",
        "id": "d510cb7a-1782-4f51-b44c-58f0236e47c7",
        "name": "Parses strings into their types",
        "python_path": "d3m.primitives.data_transformation.column_parser.DataFrameCommon",
        "version": "0.5.0"
      },
      "type": "PRIMITIVE"
    },
    {
      "arguments": {
        "inputs": {
          "data": "steps.1.produce",
          "type": "CONTAINER"
        }
      },
      "hyperparams": {
        "separator": {
          "data": "----",
          "type": "VALUE"
        }
      },
      "outputs": [
        {
          "id": "produce"
        }
      ],
      "primitive": {
        "digest": "094cf45410b84adce94368d84a7a2fa089f936024d107b7bb4866c74f980c50d",
        "id": "7b067a78-4ad4-411d-9cf9-87bcee38ac73",
        "name": "Rename all the duplicated name column in DataFrame",
        "python_path": "d3m.primitives.data_transformation.rename_duplicate_name.DataFrameCommon",
        "version": "0.2.0"
      },
      "type": "PRIMITIVE"
    },
    {
      "arguments": {
        "inputs": {
          "data": "steps.2.produce",
          "type": "CONTAINER"
        }
      },
      "hyperparams": {
        "semantic_types": {
          "data": [
            "https://metadata.datadrivendiscovery.org/types/CategoricalData"
          ],
          "type": "VALUE"
        }
      },
      "outputs": [
        {
          "id": "produce"
        }
      ],
      "primitive": {
        "digest": "e8e91840072916d30ca9c2d9f2ade9ba7b05883aa1432e73a8a449ee1d092c64",
        "id": "4503a4c6-42f7-45a1-a1d4-ed69699cf5e1",
        "name": "Extracts columns by semantic type",
        "python_path": "d3m.primitives.data_transformation.extract_columns_by_semantic_types.DataFrameCommon",
        "version": "0.2.0"
      },
      "type": "PRIMITIVE"
    },
    {
      "arguments": {
        "inputs": {
          "data": "steps.2.produce",
          "type": "CONTAINER"
        }
      },
      "hyperparams": {
        "exclude_columns": {
          "data": [
            0
          ],
          "type": "VALUE"
        },
        "semantic_types": {
          "data": [
            "http://schema.org/Integer",
            "http://schema.org/Float"
          ],
          "type": "VALUE"
        }
      },
      "outputs": [
        {
          "id": "produce"
        }
      ],
      "primitive": {
        "digest": "e8e91840072916d30ca9c2d9f2ade9ba7b05883aa1432e73a8a449ee1d092c64",
        "id": "4503a4c6-42f7-45a1-a1d4-ed69699cf5e1",
        "name": "Extracts columns by semantic type",
        "python_path": "d3m.primitives.data_transformation.extract_columns_by_semantic_types.DataFrameCommon",
        "version": "0.2.0"
      },
      "type": "PRIMITIVE"
    },
    {
      "arguments": {
        "inputs": {
          "data": "steps.0.produce",
          "type": "CONTAINER"
        }
      },
      "hyperparams": {
        "semantic_types": {
          "data": [
            "https://metadata.datadrivendiscovery.org/types/TrueTarget"
          ],
          "type": "VALUE"
        }
      },
      "outputs": [
        {
          "id": "produce"
        }
      ],
      "primitive": {
        "digest": "e8e91840072916d30ca9c2d9f2ade9ba7b05883aa1432e73a8a449ee1d092c64",
        "id": "4503a4c6-42f7-45a1-a1d4-ed69699cf5e1",
        "name": "Extracts columns by semantic type",
        "python_path": "d3m.primitives.data_transformation.extract_columns_by_semantic_types.DataFrameCommon",
        "version": "0.2.0"
      },
      "type": "PRIMITIVE"
    },
    {
      "arguments": {
        "inputs": {
          "data": "steps.4.produce",
          "type": "CONTAINER"
        }
      },
      "hyperparams": {
        "return_result": {
          "data": "replace",
          "type": "VALUE"
        },
        "use_semantic_types": {
          "data": true,
          "type": "VALUE"
        }
      },
      "outputs": [
        {
          "id": "produce"
        }
      ],
      "primitive": {
        "digest": "ca330326f98636335a541379d7e69c923e4d20abf55ed616f80c2a0492437b68",
        "id": "d016df89-de62-3c53-87ed-c06bb6a23cde",
        "name": "sklearn.preprocessing.imputation.Imputer",
        "python_path": "d3m.primitives.data_cleaning.imputer.SKlearn",
        "version": "v2019.1.21"
      },
      "type": "PRIMITIVE"
    },
    {
      "arguments": {
        "inputs": {
          "data": "steps.6.produce",
          "type": "CONTAINER"
        },
        "outputs": {
          "data": "steps.5.produce",
          "type": "CONTAINER"
        }
      },
      "hyperparams": {
        "return_result": {
          "data": "replace",
          "type": "VALUE"
        }
      },
      "outputs": [
        {
          "id": "produce"
        }
      ],
      "primitive": {
        "digest": "95149a655b442d69fbc78d91fffe527e0129e735280686ca1dfb641210d7143b",
        "id": "1dd82833-5692-39cb-84fb-2455683075f3",
        "name": "sklearn.ensemble.forest.RandomForestClassifier",
        "python_path": "d3m.primitives.classification.random_forest.SKlearn",
        "version": "v2019.1.21"
      },
      "type": "PRIMITIVE"
    },
    {
      "arguments": {
        "inputs": {
          "data": "steps.7.produce",
          "type": "CONTAINER"
        },
        "reference": {
          "data": "steps.1.produce",
          "type": "CONTAINER"
        }
      },
      "outputs": [
        {
          "id": "produce"
        }
      ],
      "primitive": {
        "digest": "1fba3f388cfd8c649cfa26047277a2a18becb040e6eeecde42e7823bb3e64d3b",
        "id": "8d38b340-f83f-4877-baaa-162f8e551736",
        "name": "Construct pipeline predictions output",
        "python_path": "d3m.primitives.data_transformation.construct_predictions.DataFrameCommon",
        "version": "0.3.0"
      },
      "type": "PRIMITIVE"
    }
  ]
}
