{
  "context": "TESTING",
  "created": "2019-02-12T01:18:47.753202Z",
  "digest": "d4f8bb1186e67a13bf0a8c05d716eda3ec85b80583c2c2758423bafe09721edd",
  "id": "4d402450-2562-48cc-93fd-719fb658c43c",
  "inputs": [
    {
      "name": "inputs"
    }
  ],
  "outputs": [
    {
      "data": "steps.6.produce",
      "name": "output predictions"
    }
  ],
  "schema": "https://metadata.datadrivendiscovery.org/schemas/v0/pipeline.json",
  "steps": [
    {
      "arguments": {
        "inputs": {
          "data": "inputs.0",
          "type": "CONTAINER"
        }
      },
      "outputs": [
        {
          "id": "produce"
        }
      ],
      "primitive": {
        "digest": "356b1d345735eee8c44d8be5e7baff8f7f008cfe32c60f8636d4099e853cd36a",
        "id": "4b42ce1e-9b98-4a25-b68e-fad13311eb65",
        "name": "Extract a DataFrame from a Dataset",
        "python_path": "d3m.primitives.data_transformation.dataset_to_dataframe.Common",
        "version": "0.3.0"
      },
      "type": "PRIMITIVE"
    },
    {
      "arguments": {
        "inputs": {
          "data": "steps.0.produce",
          "type": "CONTAINER"
        }
      },
      "hyperparams": {
        "parse_semantic_types": {
          "data": [
            "http://schema.org/Boolean",
            "http://schema.org/Integer",
            "http://schema.org/Float",
            "https://metadata.datadrivendiscovery.org/types/FloatVector",
            "http://schema.org/DateTime"
          ],
          "type": "VALUE"
        }
      },
      "outputs": [
        {
          "id": "produce"
        }
      ],
      "primitive": {
        "digest": "775475b19c0df2355fbcd3bbc390f943c3d48901b044591d66d34509f0b75324",
        "id": "d510cb7a-1782-4f51-b44c-58f0236e47c7",
        "name": "Parses strings into their types",
        "python_path": "d3m.primitives.data_transformation.column_parser.DataFrameCommon",
        "version": "0.5.0"
      },
      "type": "PRIMITIVE"
    },
    {
      "arguments": {
        "inputs": {
          "data": "steps.1.produce",
          "type": "CONTAINER"
        }
      },
      "hyperparams": {
        "semantic_types": {
          "data": [
            "https://metadata.datadrivendiscovery.org/types/CategoricalData"
          ],
          "type": "VALUE"
        }
      },
      "outputs": [
        {
          "id": "produce"
        }
      ],
      "primitive": {
        "digest": "39fa960f343db21b41e4b0682822783b131040f12f18e0418c1847c5a21197d6",
        "id": "4503a4c6-42f7-45a1-a1d4-ed69699cf5e1",
        "name": "Extracts columns by semantic type",
        "python_path": "d3m.primitives.data_transformation.extract_columns_by_semantic_types.DataFrameCommon",
        "version": "0.2.0"
      },
      "type": "PRIMITIVE"
    },
    {
      "arguments": {
        "inputs": {
          "data": "steps.1.produce",
          "type": "CONTAINER"
        }
      },
      "hyperparams": {
        "exclude_columns": {
          "data": [
            0
          ],
          "type": "VALUE"
        },
        "semantic_types": {
          "data": [
            "http://schema.org/Integer",
            "http://schema.org/Float"
          ],
          "type": "VALUE"
        }
      },
      "outputs": [
        {
          "id": "produce"
        }
      ],
      "primitive": {
        "digest": "39fa960f343db21b41e4b0682822783b131040f12f18e0418c1847c5a21197d6",
        "id": "4503a4c6-42f7-45a1-a1d4-ed69699cf5e1",
        "name": "Extracts columns by semantic type",
        "python_path": "d3m.primitives.data_transformation.extract_columns_by_semantic_types.DataFrameCommon",
        "version": "0.2.0"
      },
      "type": "PRIMITIVE"
    },
    {
      "arguments": {
        "inputs": {
          "data": "steps.0.produce",
          "type": "CONTAINER"
        }
      },
      "hyperparams": {
        "semantic_types": {
          "data": [
            "https://metadata.datadrivendiscovery.org/types/TrueTarget"
          ],
          "type": "VALUE"
        }
      },
      "outputs": [
        {
          "id": "produce"
        }
      ],
      "primitive": {
        "digest": "39fa960f343db21b41e4b0682822783b131040f12f18e0418c1847c5a21197d6",
        "id": "4503a4c6-42f7-45a1-a1d4-ed69699cf5e1",
        "name": "Extracts columns by semantic type",
        "python_path": "d3m.primitives.data_transformation.extract_columns_by_semantic_types.DataFrameCommon",
        "version": "0.2.0"
      },
      "type": "PRIMITIVE"
    },
    {
      "arguments": {
        "inputs": {
          "data": "steps.3.produce",
          "type": "CONTAINER"
        }
      },
      "hyperparams": {
        "return_result": {
          "data": "replace",
          "type": "VALUE"
        },
        "use_semantic_types": {
          "data": true,
          "type": "VALUE"
        }
      },
      "outputs": [
        {
          "id": "produce"
        }
      ],
      "primitive": {
        "digest": "ca330326f98636335a541379d7e69c923e4d20abf55ed616f80c2a0492437b68",
        "id": "d016df89-de62-3c53-87ed-c06bb6a23cde",
        "name": "sklearn.preprocessing.imputation.Imputer",
        "python_path": "d3m.primitives.data_cleaning.imputer.SKlearn",
        "version": "v2019.1.21"
      },
      "type": "PRIMITIVE"
    },
    {
      "arguments": {
        "inputs": {
          "data": "steps.5.produce",
          "type": "CONTAINER"
        },
        "outputs": {
          "data": "steps.4.produce",
          "type": "CONTAINER"
        }
      },
      "hyperparams": {
        "return_result": {
          "data": "replace",
          "type": "VALUE"
        }
      },
      "outputs": [
        {
          "id": "produce"
        }
      ],
      "primitive": {
        "digest": "003825dc9ffa65fd71b1e35e902ede5d6c7944769a516f59cec7772763bfabcc",
        "id": "259aa747-795c-435e-8e33-8c32a4c83c6b",
        "name": "XGBoost GBTree classifier",
        "python_path": "d3m.primitives.classification.xgboost_gbtree.DataFrameCommon",
        "version": "0.1.0"
      },
      "type": "PRIMITIVE"
    },
    {
      "arguments": {
        "inputs": {
          "data": "steps.6.produce",
          "type": "CONTAINER"
        },
        "reference": {
          "data": "steps.1.produce",
          "type": "CONTAINER"
        }
      },
      "outputs": [
        {
          "id": "produce"
        }
      ],
      "primitive": {
        "digest": "0f0686762e13e96ed7ffb59f50dfbcde788dd339331a1da5216fb8cf27bf90d9",
        "id": "8d38b340-f83f-4877-baaa-162f8e551736",
        "name": "Construct pipeline predictions output",
        "python_path": "d3m.primitives.data_transformation.construct_predictions.DataFrameCommon",
        "version": "0.3.0"
      },
      "type": "PRIMITIVE"
    }
  ]
}
